mode: set
delphin/cmd/db-manager/main.go:33.143,36.2 2 1
delphin/cmd/db-manager/main.go:39.134,44.2 2 1
delphin/cmd/db-manager/main.go:47.143,50.2 2 1
delphin/cmd/db-manager/main.go:52.119,58.76 2 1
delphin/cmd/db-manager/main.go:64.2,65.16 2 1
delphin/cmd/db-manager/main.go:70.2,70.19 1 1
delphin/cmd/db-manager/main.go:58.76,61.3 2 1
delphin/cmd/db-manager/main.go:65.16,68.3 2 0
delphin/cmd/db-manager/main.go:73.13,78.18 5 0
delphin/cmd/db-manager/main.go:81.2,82.16 2 0
delphin/cmd/db-manager/main.go:85.2,87.16 3 0
delphin/cmd/db-manager/main.go:91.2,97.41 7 0
delphin/cmd/db-manager/main.go:78.18,80.3 1 0
delphin/cmd/db-manager/main.go:82.16,84.3 1 0
delphin/cmd/db-manager/main.go:87.16,89.3 1 0
delphin/cmd/db-manager/main.go:97.41,99.3 1 0
delphin/pkg/db/mysql/init.go:9.27,19.16 4 1
delphin/pkg/db/mysql/init.go:19.16,21.3 1 0
delphin/pkg/db/mysql/init.go:24.36,27.16 3 1
delphin/pkg/db/mysql/init.go:30.2,30.12 1 0
delphin/pkg/db/mysql/init.go:27.16,29.3 1 1
delphin/pkg/db/mysql/mysql.go:34.25,47.2 7 1
delphin/pkg/db/mysql/mysql.go:50.42,55.6 4 0
delphin/pkg/db/mysql/mysql.go:55.6,56.10 1 0
delphin/pkg/db/mysql/mysql.go:57.19,58.67 1 0
delphin/pkg/db/mysql/mysql.go:66.19,67.78 1 0
delphin/pkg/db/mysql/mysql.go:58.67,59.36 1 0
delphin/pkg/db/mysql/mysql.go:62.5,62.54 1 0
delphin/pkg/db/mysql/mysql.go:59.36,61.6 1 0
delphin/pkg/db/mysql/mysql.go:63.10,65.5 1 0
delphin/pkg/db/mysql/mysql.go:72.68,76.16 4 1
delphin/pkg/db/mysql/mysql.go:81.2,83.15 2 1
delphin/pkg/db/mysql/mysql.go:76.16,78.3 1 0
delphin/pkg/db/mysql/mysql.go:86.58,88.16 2 0
delphin/pkg/db/mysql/mysql.go:91.2,91.27 1 0
delphin/pkg/db/mysql/mysql.go:88.16,90.3 1 0
delphin/pkg/db/mysql/mysql.go:94.106,96.49 2 1
delphin/pkg/db/mysql/mysql.go:123.2,123.12 1 1
delphin/pkg/db/mysql/mysql.go:96.49,99.27 3 1
delphin/pkg/db/mysql/mysql.go:102.3,103.17 2 1
delphin/pkg/db/mysql/mysql.go:106.3,119.17 3 1
delphin/pkg/db/mysql/mysql.go:99.27,100.12 1 0
delphin/pkg/db/mysql/mysql.go:103.17,105.4 1 0
delphin/pkg/db/mysql/mysql.go:119.17,121.4 1 0
delphin/pkg/db/mysql/mysql.go:126.63,129.2 2 1
delphin/pkg/db/mysql/mysql.go:131.141,134.22 3 1
delphin/pkg/db/mysql/mysql.go:138.2,138.21 1 1
delphin/pkg/db/mysql/mysql.go:147.2,147.19 1 1
delphin/pkg/db/mysql/mysql.go:156.2,158.16 2 1
delphin/pkg/db/mysql/mysql.go:161.2,164.18 2 1
delphin/pkg/db/mysql/mysql.go:185.2,185.20 1 1
delphin/pkg/db/mysql/mysql.go:134.22,137.3 2 1
delphin/pkg/db/mysql/mysql.go:138.21,140.17 2 1
delphin/pkg/db/mysql/mysql.go:143.3,145.46 3 1
delphin/pkg/db/mysql/mysql.go:140.17,142.4 1 0
delphin/pkg/db/mysql/mysql.go:147.19,149.17 2 1
delphin/pkg/db/mysql/mysql.go:152.3,154.44 3 1
delphin/pkg/db/mysql/mysql.go:149.17,151.4 1 0
delphin/pkg/db/mysql/mysql.go:158.16,160.3 1 0
delphin/pkg/db/mysql/mysql.go:164.18,167.17 3 1
delphin/pkg/db/mysql/mysql.go:171.3,172.17 2 1
delphin/pkg/db/mysql/mysql.go:176.3,183.5 2 1
delphin/pkg/db/mysql/mysql.go:167.17,169.12 2 0
delphin/pkg/db/mysql/mysql.go:172.17,174.12 2 0
delphin/pkg/controllers/trial/prometheus_metrics.go:37.95,67.2 3 0
delphin/pkg/controllers/trial/prometheus_metrics.go:70.64,76.2 5 0
delphin/pkg/controllers/trial/prometheus_metrics.go:79.64,86.2 6 0
delphin/pkg/controllers/trial/prometheus_metrics.go:88.65,90.2 1 0
delphin/pkg/controllers/trial/prometheus_metrics.go:92.65,94.2 1 0
delphin/pkg/controllers/trial/prometheus_metrics.go:96.67,98.2 1 0
delphin/pkg/controllers/trial/prometheus_metrics.go:100.64,102.2 1 0
delphin/pkg/controllers/trial/prometheus_metrics.go:105.37,112.69 3 0
delphin/pkg/controllers/trial/prometheus_metrics.go:116.2,117.41 2 0
delphin/pkg/controllers/trial/prometheus_metrics.go:131.2,132.32 2 0
delphin/pkg/controllers/trial/prometheus_metrics.go:112.69,114.3 1 0
delphin/pkg/controllers/trial/prometheus_metrics.go:117.41,121.17 3 0
delphin/pkg/controllers/trial/prometheus_metrics.go:125.3,125.48 1 0
delphin/pkg/controllers/trial/prometheus_metrics.go:128.3,128.43 1 0
delphin/pkg/controllers/trial/prometheus_metrics.go:121.17,123.4 1 0
delphin/pkg/controllers/trial/prometheus_metrics.go:125.48,127.4 1 0
delphin/pkg/controllers/trial/prometheus_metrics.go:132.32,133.32 1 0
delphin/pkg/controllers/trial/prometheus_metrics.go:133.32,135.4 1 0
delphin/pkg/controllers/trial/trial_controller.go:63.37,65.2 1 0
delphin/pkg/controllers/trial/trial_controller.go:68.62,79.2 3 0
delphin/pkg/controllers/trial/trial_controller.go:82.61,85.16 2 0
delphin/pkg/controllers/trial/trial_controller.go:91.2,92.16 2 0
delphin/pkg/controllers/trial/trial_controller.go:98.2,104.16 2 0
delphin/pkg/controllers/trial/trial_controller.go:109.2,115.16 2 0
delphin/pkg/controllers/trial/trial_controller.go:120.2,124.16 2 0
delphin/pkg/controllers/trial/trial_controller.go:128.2,132.16 2 0
delphin/pkg/controllers/trial/trial_controller.go:136.2,137.12 2 0
delphin/pkg/controllers/trial/trial_controller.go:85.16,88.3 2 0
delphin/pkg/controllers/trial/trial_controller.go:92.16,95.3 2 0
delphin/pkg/controllers/trial/trial_controller.go:104.16,107.3 2 0
delphin/pkg/controllers/trial/trial_controller.go:115.16,118.3 2 0
delphin/pkg/controllers/trial/trial_controller.go:124.16,126.3 1 0
delphin/pkg/controllers/trial/trial_controller.go:132.16,134.3 1 0
delphin/pkg/controllers/trial/trial_controller.go:155.76,164.16 4 0
delphin/pkg/controllers/trial/trial_controller.go:172.2,175.37 2 0
delphin/pkg/controllers/trial/trial_controller.go:197.2,197.68 1 0
delphin/pkg/controllers/trial/trial_controller.go:207.2,207.27 1 0
delphin/pkg/controllers/trial/trial_controller.go:164.16,165.29 1 0
delphin/pkg/controllers/trial/trial_controller.go:168.3,169.33 2 0
delphin/pkg/controllers/trial/trial_controller.go:165.29,167.4 1 0
delphin/pkg/controllers/trial/trial_controller.go:175.37,176.39 1 0
delphin/pkg/controllers/trial/trial_controller.go:180.3,180.44 1 0
delphin/pkg/controllers/trial/trial_controller.go:184.3,185.51 2 0
delphin/pkg/controllers/trial/trial_controller.go:176.39,179.4 2 0
delphin/pkg/controllers/trial/trial_controller.go:180.44,183.4 2 0
delphin/pkg/controllers/trial/trial_controller.go:186.8,190.17 2 0
delphin/pkg/controllers/trial/trial_controller.go:190.17,193.4 2 0
delphin/pkg/controllers/trial/trial_controller.go:197.68,198.35 1 0
delphin/pkg/controllers/trial/trial_controller.go:198.35,200.18 2 0
delphin/pkg/controllers/trial/trial_controller.go:200.18,203.5 2 0
delphin/pkg/controllers/trial/trial_controller.go:211.142,216.53 3 0
delphin/pkg/controllers/trial/trial_controller.go:253.2,253.20 1 0
delphin/pkg/controllers/trial/trial_controller.go:216.53,218.29 1 0
delphin/pkg/controllers/trial/trial_controller.go:218.29,219.40 1 0
delphin/pkg/controllers/trial/trial_controller.go:222.4,225.18 3 0
delphin/pkg/controllers/trial/trial_controller.go:219.40,221.5 1 0
delphin/pkg/controllers/trial/trial_controller.go:225.18,228.5 2 0
delphin/pkg/controllers/trial/trial_controller.go:230.9,234.4 2 0
delphin/pkg/controllers/trial/trial_controller.go:235.8,237.39 1 0
delphin/pkg/controllers/trial/trial_controller.go:237.39,239.76 1 0
delphin/pkg/controllers/trial/trial_controller.go:244.4,244.120 1 0
delphin/pkg/controllers/trial/trial_controller.go:239.76,242.5 2 0
delphin/pkg/controllers/trial/trial_controller.go:244.120,247.5 2 0
delphin/pkg/controllers/trial/trial_controller.go:247.10,250.5 2 0
delphin/pkg/controllers/trial/trial_controller.go:257.81,262.16 3 0
delphin/pkg/controllers/trial/trial_controller.go:265.2,266.16 2 0
delphin/pkg/controllers/trial/trial_controller.go:271.2,272.16 2 0
delphin/pkg/controllers/trial/trial_controller.go:278.2,279.16 2 0
delphin/pkg/controllers/trial/trial_controller.go:285.2,286.16 2 0
delphin/pkg/controllers/trial/trial_controller.go:291.2,291.24 1 0
delphin/pkg/controllers/trial/trial_controller.go:301.2,303.55 2 0
delphin/pkg/controllers/trial/trial_controller.go:338.2,338.12 1 0
delphin/pkg/controllers/trial/trial_controller.go:262.16,264.3 1 0
delphin/pkg/controllers/trial/trial_controller.go:266.16,268.3 1 0
delphin/pkg/controllers/trial/trial_controller.go:272.16,275.3 2 0
delphin/pkg/controllers/trial/trial_controller.go:279.16,282.3 2 0
delphin/pkg/controllers/trial/trial_controller.go:286.16,289.3 2 0
delphin/pkg/controllers/trial/trial_controller.go:291.24,294.17 2 0
delphin/pkg/controllers/trial/trial_controller.go:298.3,298.13 1 0
delphin/pkg/controllers/trial/trial_controller.go:294.17,297.4 2 0
delphin/pkg/controllers/trial/trial_controller.go:303.55,308.39 3 0
delphin/pkg/controllers/trial/trial_controller.go:314.3,315.40 2 0
delphin/pkg/controllers/trial/trial_controller.go:326.3,326.68 1 0
delphin/pkg/controllers/trial/trial_controller.go:308.39,311.4 2 0
delphin/pkg/controllers/trial/trial_controller.go:315.40,319.79 2 0
delphin/pkg/controllers/trial/trial_controller.go:319.79,322.5 2 0
delphin/pkg/controllers/trial/trial_controller.go:328.8,330.55 1 0
delphin/pkg/controllers/trial/trial_controller.go:330.55,333.4 2 0
delphin/pkg/controllers/trial/trial_controller.go:333.9,336.4 2 0
delphin/pkg/controllers/trial/trial_controller.go:342.113,345.87 2 0
delphin/pkg/controllers/trial/trial_controller.go:348.2,349.16 2 0
delphin/pkg/controllers/trial/trial_controller.go:378.2,378.17 1 0
delphin/pkg/controllers/trial/trial_controller.go:345.87,347.3 1 0
delphin/pkg/controllers/trial/trial_controller.go:349.16,351.29 1 0
delphin/pkg/controllers/trial/trial_controller.go:351.29,352.40 1 0
delphin/pkg/controllers/trial/trial_controller.go:355.4,358.18 4 0
delphin/pkg/controllers/trial/trial_controller.go:352.40,354.5 1 0
delphin/pkg/controllers/trial/trial_controller.go:358.18,361.5 2 0
delphin/pkg/controllers/trial/trial_controller.go:362.9,365.4 2 0
delphin/pkg/controllers/trial/trial_controller.go:366.8,368.39 1 0
delphin/pkg/controllers/trial/trial_controller.go:368.39,370.117 1 0
delphin/pkg/controllers/trial/trial_controller.go:370.117,373.5 2 0
delphin/pkg/controllers/trial/trial_controller.go:373.10,375.5 1 0
delphin/pkg/controllers/trial/trial_controller.go:382.93,391.38 6 0
delphin/pkg/controllers/trial/trial_controller.go:398.2,398.48 1 0
delphin/pkg/controllers/trial/trial_controller.go:401.2,404.34 2 0
delphin/pkg/controllers/trial/trial_controller.go:409.2,409.51 1 0
delphin/pkg/controllers/trial/trial_controller.go:413.2,413.80 1 0
delphin/pkg/controllers/trial/trial_controller.go:417.2,417.17 1 0
delphin/pkg/controllers/trial/trial_controller.go:391.38,395.3 1 0
delphin/pkg/controllers/trial/trial_controller.go:398.48,400.3 1 0
delphin/pkg/controllers/trial/trial_controller.go:404.34,406.3 1 0
delphin/pkg/controllers/trial/trial_controller.go:409.51,412.3 2 0
delphin/pkg/controllers/trial/trial_controller.go:413.80,416.3 2 0
delphin/pkg/controllers/trial/trial_controller.go:420.93,441.84 3 0
delphin/pkg/controllers/trial/trial_controller.go:445.2,445.21 1 0
delphin/pkg/controllers/trial/trial_controller.go:441.84,443.3 1 0
delphin/pkg/controllers/trial/trial_controller.go:448.127,451.79 3 0
delphin/pkg/controllers/trial/trial_controller.go:471.2,471.26 1 0
delphin/pkg/controllers/trial/trial_controller.go:451.79,455.3 3 0
delphin/pkg/controllers/trial/trial_controller.go:455.8,456.39 1 0
delphin/pkg/controllers/trial/trial_controller.go:456.39,458.82 1 0
delphin/pkg/controllers/trial/trial_controller.go:463.4,463.126 1 0
delphin/pkg/controllers/trial/trial_controller.go:458.82,461.5 1 0
delphin/pkg/controllers/trial/trial_controller.go:463.126,466.5 1 0
delphin/pkg/controllers/trial/trial_controller.go:466.10,468.5 1 0
delphin/pkg/controllers/trial/trial_controller.go:475.106,481.39 5 0
delphin/pkg/controllers/trial/trial_controller.go:490.2,490.45 1 0
delphin/pkg/controllers/trial/trial_controller.go:501.2,516.78 2 0
delphin/pkg/controllers/trial/trial_controller.go:543.2,543.15 1 0
delphin/pkg/controllers/trial/trial_controller.go:481.39,484.3 1 0
delphin/pkg/controllers/trial/trial_controller.go:490.45,499.3 3 0
delphin/pkg/controllers/trial/trial_controller.go:516.78,518.3 1 0
delphin/pkg/controllers/trial/trial_controller.go:547.184,551.42 3 0
delphin/pkg/controllers/trial/trial_controller.go:576.2,576.29 1 0
delphin/pkg/controllers/trial/trial_controller.go:551.42,552.48 1 0
delphin/pkg/controllers/trial/trial_controller.go:552.48,555.4 2 0
delphin/pkg/controllers/trial/trial_controller.go:555.9,555.56 1 0
delphin/pkg/controllers/trial/trial_controller.go:555.56,557.4 1 0
delphin/pkg/controllers/trial/trial_controller.go:557.9,557.60 1 0
delphin/pkg/controllers/trial/trial_controller.go:557.60,559.18 2 0
delphin/pkg/controllers/trial/trial_controller.go:572.4,573.67 2 0
delphin/pkg/controllers/trial/trial_controller.go:560.15,562.10 2 0
delphin/pkg/controllers/trial/trial_controller.go:563.18,565.10 2 0
delphin/pkg/controllers/trial/trial_controller.go:566.19,568.10 2 0
delphin/pkg/controllers/trial/trial_controller.go:569.12,570.52 1 0
delphin/pkg/controllers/trial/trial_controller.go:580.82,586.2 4 0
delphin/pkg/controllers/trial/trial_controller.go:588.68,592.2 1 0
delphin/pkg/controllers/trial/trial_controller_util.go:34.79,36.16 2 0
delphin/pkg/controllers/trial/trial_controller_util.go:39.2,39.12 1 0
delphin/pkg/controllers/trial/trial_controller_util.go:36.16,38.3 1 0
delphin/pkg/controllers/trial/trial_controller_util.go:42.150,43.66 1 0
delphin/pkg/controllers/trial/trial_controller_util.go:49.2,52.45 3 0
delphin/pkg/controllers/trial/trial_controller_util.go:79.2,79.8 1 0
delphin/pkg/controllers/trial/trial_controller_util.go:43.66,47.3 3 0
delphin/pkg/controllers/trial/trial_controller_util.go:52.45,54.44 1 0
delphin/pkg/controllers/trial/trial_controller_util.go:54.44,62.4 6 0
delphin/pkg/controllers/trial/trial_controller_util.go:62.9,66.4 2 0
delphin/pkg/controllers/trial/trial_controller_util.go:67.8,67.50 1 0
delphin/pkg/controllers/trial/trial_controller_util.go:67.50,73.3 4 0
delphin/pkg/controllers/trial/trial_controller_util.go:73.8,77.3 2 0
delphin/pkg/controllers/trial/trial_controller_util.go:82.142,93.59 6 0
delphin/pkg/controllers/trial/trial_controller_util.go:98.2,98.20 1 0
delphin/pkg/controllers/trial/trial_controller_util.go:93.59,96.3 2 0
delphin/pkg/controllers/trial/trial_controller_util.go:101.121,102.118 1 0
delphin/pkg/controllers/trial/trial_controller_util.go:107.2,111.16 3 0
delphin/pkg/controllers/trial/trial_controller_util.go:116.2,116.25 1 0
delphin/pkg/controllers/trial/trial_controller_util.go:137.2,137.12 1 0
delphin/pkg/controllers/trial/trial_controller_util.go:102.118,104.3 1 0
delphin/pkg/controllers/trial/trial_controller_util.go:111.16,113.3 1 0
delphin/pkg/controllers/trial/trial_controller_util.go:116.25,118.17 2 0
delphin/pkg/controllers/trial/trial_controller_util.go:121.3,121.34 1 0
delphin/pkg/controllers/trial/trial_controller_util.go:118.17,120.4 1 0
delphin/pkg/controllers/trial/trial_controller_util.go:121.34,134.4 6 0
delphin/pkg/controllers/trial/trial_controller_util.go:140.72,141.111 1 0
delphin/pkg/controllers/trial/trial_controller_util.go:146.2,147.40 2 0
delphin/pkg/controllers/trial/trial_controller_util.go:160.2,160.14 1 0
delphin/pkg/controllers/trial/trial_controller_util.go:141.111,143.3 1 0
delphin/pkg/controllers/trial/trial_controller_util.go:147.40,148.58 1 0
delphin/pkg/controllers/trial/trial_controller_util.go:148.58,149.72 1 0
delphin/pkg/controllers/trial/trial_controller_util.go:149.72,152.43 1 0
delphin/pkg/controllers/trial/trial_controller_util.go:152.43,154.6 1 0
delphin/pkg/controllers/experiment/profilingexperiment_controller.go:67.37,69.2 1 0
delphin/pkg/controllers/experiment/profilingexperiment_controller.go:72.62,84.2 7 0
delphin/pkg/controllers/experiment/profilingexperiment_controller.go:87.97,89.2 1 0
delphin/pkg/controllers/experiment/profilingexperiment_controller.go:92.61,95.16 2 0
delphin/pkg/controllers/experiment/profilingexperiment_controller.go:99.2,99.40 1 0
delphin/pkg/controllers/experiment/profilingexperiment_controller.go:104.2,105.12 2 0
delphin/pkg/controllers/experiment/profilingexperiment_controller.go:95.16,98.3 2 0
delphin/pkg/controllers/experiment/profilingexperiment_controller.go:99.40,102.3 2 0
delphin/pkg/controllers/experiment/profilingexperiment_controller.go:109.67,112.16 2 0
delphin/pkg/controllers/experiment/profilingexperiment_controller.go:118.2,125.16 2 0
delphin/pkg/controllers/experiment/profilingexperiment_controller.go:130.2,137.16 2 0
delphin/pkg/controllers/experiment/profilingexperiment_controller.go:141.2,141.12 1 0
delphin/pkg/controllers/experiment/profilingexperiment_controller.go:112.16,115.3 2 0
delphin/pkg/controllers/experiment/profilingexperiment_controller.go:125.16,128.3 2 0
delphin/pkg/controllers/experiment/profilingexperiment_controller.go:137.16,140.3 2 0
delphin/pkg/controllers/experiment/profilingexperiment_controller.go:163.90,169.16 4 0
delphin/pkg/controllers/experiment/profilingexperiment_controller.go:179.2,182.43 2 0
delphin/pkg/controllers/experiment/profilingexperiment_controller.go:196.2,196.42 1 0
delphin/pkg/controllers/experiment/profilingexperiment_controller.go:219.2,219.68 1 0
delphin/pkg/controllers/experiment/profilingexperiment_controller.go:228.2,228.27 1 0
delphin/pkg/controllers/experiment/profilingexperiment_controller.go:169.16,170.29 1 0
delphin/pkg/controllers/experiment/profilingexperiment_controller.go:176.3,177.33 2 0
delphin/pkg/controllers/experiment/profilingexperiment_controller.go:170.29,174.4 1 0
delphin/pkg/controllers/experiment/profilingexperiment_controller.go:182.43,186.17 2 0
delphin/pkg/controllers/experiment/profilingexperiment_controller.go:191.3,191.40 1 0
delphin/pkg/controllers/experiment/profilingexperiment_controller.go:186.17,189.4 2 0
delphin/pkg/controllers/experiment/profilingexperiment_controller.go:191.40,193.4 1 0
delphin/pkg/controllers/experiment/profilingexperiment_controller.go:196.42,198.39 1 0
delphin/pkg/controllers/experiment/profilingexperiment_controller.go:202.3,202.44 1 0
delphin/pkg/controllers/experiment/profilingexperiment_controller.go:206.3,207.55 2 0
delphin/pkg/controllers/experiment/profilingexperiment_controller.go:198.39,201.4 2 0
delphin/pkg/controllers/experiment/profilingexperiment_controller.go:202.44,205.4 2 0
delphin/pkg/controllers/experiment/profilingexperiment_controller.go:208.8,210.17 2 0
delphin/pkg/controllers/experiment/profilingexperiment_controller.go:210.17,216.4 3 0
delphin/pkg/controllers/experiment/profilingexperiment_controller.go:219.68,222.17 2 0
delphin/pkg/controllers/experiment/profilingexperiment_controller.go:222.17,225.4 2 0
delphin/pkg/controllers/experiment/profilingexperiment_controller.go:232.114,242.59 8 0
delphin/pkg/controllers/experiment/profilingexperiment_controller.go:247.2,247.27 1 0
delphin/pkg/controllers/experiment/profilingexperiment_controller.go:254.2,255.23 2 0
delphin/pkg/controllers/experiment/profilingexperiment_controller.go:258.2,258.12 1 0
delphin/pkg/controllers/experiment/profilingexperiment_controller.go:242.59,245.3 2 0
delphin/pkg/controllers/experiment/profilingexperiment_controller.go:247.27,249.84 1 0
delphin/pkg/controllers/experiment/profilingexperiment_controller.go:249.84,252.4 2 0
delphin/pkg/controllers/experiment/profilingexperiment_controller.go:255.23,257.3 1 0
delphin/pkg/controllers/experiment/profilingexperiment_controller.go:262.142,268.33 5 0
delphin/pkg/controllers/experiment/profilingexperiment_controller.go:306.2,306.12 1 0
delphin/pkg/controllers/experiment/profilingexperiment_controller.go:268.33,272.40 2 0
delphin/pkg/controllers/experiment/profilingexperiment_controller.go:281.3,282.19 2 0
delphin/pkg/controllers/experiment/profilingexperiment_controller.go:288.3,295.19 2 0
delphin/pkg/controllers/experiment/profilingexperiment_controller.go:272.40,274.4 1 0
delphin/pkg/controllers/experiment/profilingexperiment_controller.go:274.9,276.43 2 0
delphin/pkg/controllers/experiment/profilingexperiment_controller.go:276.43,278.5 1 0
delphin/pkg/controllers/experiment/profilingexperiment_controller.go:282.19,286.4 2 0
delphin/pkg/controllers/experiment/profilingexperiment_controller.go:295.19,298.69 2 0
delphin/pkg/controllers/experiment/profilingexperiment_controller.go:298.69,301.5 2 0
delphin/pkg/controllers/experiment/profilingexperiment_controller.go:309.158,316.16 4 0
delphin/pkg/controllers/experiment/profilingexperiment_controller.go:320.2,320.31 1 0
delphin/pkg/controllers/experiment/profilingexperiment_controller.go:327.2,327.12 1 0
delphin/pkg/controllers/experiment/profilingexperiment_controller.go:316.16,319.3 2 0
delphin/pkg/controllers/experiment/profilingexperiment_controller.go:320.31,321.64 1 0
delphin/pkg/controllers/experiment/profilingexperiment_controller.go:321.64,323.12 2 0
delphin/pkg/controllers/experiment/profilingexperiment_controller.go:330.167,347.92 6 0
delphin/pkg/controllers/experiment/profilingexperiment_controller.go:352.2,360.58 8 0
delphin/pkg/controllers/experiment/profilingexperiment_controller.go:373.2,373.56 1 0
delphin/pkg/controllers/experiment/profilingexperiment_controller.go:377.2,377.12 1 0
delphin/pkg/controllers/experiment/profilingexperiment_controller.go:347.92,350.3 2 0
delphin/pkg/controllers/experiment/profilingexperiment_controller.go:360.58,367.3 1 0
delphin/pkg/controllers/experiment/profilingexperiment_controller.go:373.56,376.3 2 0
delphin/pkg/controllers/experiment/profilingexperiment_controller.go:382.180,392.16 6 0
delphin/pkg/controllers/experiment/profilingexperiment_controller.go:421.2,421.25 1 0
delphin/pkg/controllers/experiment/profilingexperiment_controller.go:392.16,395.3 2 0
delphin/pkg/controllers/experiment/profilingexperiment_controller.go:395.8,396.22 1 0
delphin/pkg/controllers/experiment/profilingexperiment_controller.go:396.22,397.40 1 0
delphin/pkg/controllers/experiment/profilingexperiment_controller.go:397.40,400.5 2 0
delphin/pkg/controllers/experiment/profilingexperiment_controller.go:400.10,402.72 2 0
delphin/pkg/controllers/experiment/profilingexperiment_controller.go:409.5,409.68 1 0
delphin/pkg/controllers/experiment/profilingexperiment_controller.go:402.72,408.6 2 0
delphin/pkg/controllers/experiment/profilingexperiment_controller.go:409.68,413.63 2 0
delphin/pkg/controllers/experiment/profilingexperiment_controller.go:413.63,415.7 1 0
delphin/pkg/controllers/experiment/profilingexperiment_controller.go:426.107,428.16 2 0
delphin/pkg/controllers/experiment/profilingexperiment_controller.go:431.2,431.12 1 0
delphin/pkg/controllers/experiment/profilingexperiment_controller.go:428.16,430.3 1 0
delphin/pkg/controllers/experiment/profilingexperiment_controller.go:434.114,438.16 3 0
delphin/pkg/controllers/experiment/profilingexperiment_controller.go:446.2,446.77 1 0
delphin/pkg/controllers/experiment/profilingexperiment_controller.go:449.2,455.59 6 0
delphin/pkg/controllers/experiment/profilingexperiment_controller.go:458.2,458.12 1 0
delphin/pkg/controllers/experiment/profilingexperiment_controller.go:438.16,439.29 1 0
delphin/pkg/controllers/experiment/profilingexperiment_controller.go:442.3,442.13 1 0
delphin/pkg/controllers/experiment/profilingexperiment_controller.go:439.29,441.4 1 0
delphin/pkg/controllers/experiment/profilingexperiment_controller.go:446.77,448.3 1 0
delphin/pkg/controllers/experiment/profilingexperiment_controller.go:455.59,457.3 1 0
delphin/pkg/controllers/experiment/profilingexperiment_controller.go:461.82,465.2 1 0
delphin/pkg/controllers/add_trial.go:23.13,26.2 1 1
delphin/pkg/controllers/controller.go:26.44,27.38 1 0
delphin/pkg/controllers/controller.go:32.2,32.12 1 0
delphin/pkg/controllers/controller.go:27.38,28.30 1 0
delphin/pkg/controllers/controller.go:28.30,30.4 1 0
delphin/pkg/controllers/add_experiment.go:23.13,26.2 1 1
delphin/pkg/controllers/add_sampling.go:23.13,26.2 1 1
